﻿ID--number
Character Name
Mems--
-m- Memory Name
<data> 12353 //1.level, 2.
can be about anything	// memory body
or as long as you want  // ""       ""
-m- Memory Name		
a different memory		// ""       ""
can be the same name	// ""       ""
just need different id  // ""       ""
--Mems

ID--2 // New character starts here after one line break